C:\Users\karthikbanu.kulkarni\OneDrive - HCL TECHNOLOGIES LIMITED\Documents\Geodist\Geodist\src\main\java\org\training\geodist\service\implementation\GeoDistanceImpl.java
C:\Users\karthikbanu.kulkarni\OneDrive - HCL TECHNOLOGIES LIMITED\Documents\Geodist\Geodist\src\main\java\org\training\geodist\dto\DistanceResponse.java
C:\Users\karthikbanu.kulkarni\OneDrive - HCL TECHNOLOGIES LIMITED\Documents\Geodist\Geodist\src\main\java\org\training\geodist\service\GeoDistance.java
C:\Users\karthikbanu.kulkarni\OneDrive - HCL TECHNOLOGIES LIMITED\Documents\Geodist\Geodist\src\main\java\org\training\geodist\controller\GeocodingController.java
C:\Users\karthikbanu.kulkarni\OneDrive - HCL TECHNOLOGIES LIMITED\Documents\Geodist\Geodist\src\main\java\org\training\geodist\GeodistApplication.java
C:\Users\karthikbanu.kulkarni\OneDrive - HCL TECHNOLOGIES LIMITED\Documents\Geodist\Geodist\src\main\java\org\training\geodist\dto\DistanceRequest.java
