-------------------------------------------------------------------------------
Test set: org.training.geodist.GeodistApplicationTests
-------------------------------------------------------------------------------
Tests run: 1, Failures: 0, Errors: 0, Skipped: 0, Time elapsed: 22.76 s -- in org.training.geodist.GeodistApplicationTests
